{
    "key": "group_540879574aca3",
    "title": "Bildspel",
    "fields": [
        {
            "key": "field_54294528c77bb",
            "label": "L\u00e4gg till text",
            "name": "desc_on",
            "type": "radio",
            "instructions": "",
            "required": 0,
            "conditional_logic": 0,
            "wrapper": {
                "width": "",
                "class": "",
                "id": ""
            },
            "choices": {
                "no": "Nej",
                "yes": "Ja"
            },
            "other_choice": 0,
            "save_other_choice": 0,
            "default_value": "",
            "layout": "horizontal"
        },
        {
            "key": "field_53f74903da17c",
            "label": "Titel",
            "name": "title",
            "type": "text",
            "instructions": "",
            "required": 0,
            "conditional_logic": [
                [
                    {
                        "field": "field_54294528c77bb",
                        "operator": "==",
                        "value": "yes"
                    }
                ]
            ],
            "wrapper": {
                "width": "",
                "class": "",
                "id": ""
            },
            "default_value": "",
            "placeholder": "",
            "prepend": "",
            "append": "",
            "maxlength": "",
            "readonly": 0,
            "disabled": 0
        },
        {
            "key": "field_5452140b34269",
            "label": "Text",
            "name": "text",
            "type": "wysiwyg",
            "instructions": "",
            "required": 0,
            "conditional_logic": [
                [
                    {
                        "field": "field_54294528c77bb",
                        "operator": "==",
                        "value": "yes"
                    }
                ]
            ],
            "wrapper": {
                "width": "",
                "class": "",
                "id": ""
            },
            "default_value": "",
            "tabs": "all",
            "toolbar": "full",
            "media_upload": 1
        },
        {
            "key": "field_53b3d4751066f",
            "label": "Textf\u00e4rg",
            "name": "color",
            "type": "radio",
            "instructions": "V\u00e4lj f\u00e4rgen p\u00e5 texten i bildspelet",
            "required": 0,
            "conditional_logic": [
                [
                    {
                        "field": "field_54294528c77bb",
                        "operator": "==",
                        "value": "yes"
                    }
                ]
            ],
            "wrapper": {
                "width": "",
                "class": "",
                "id": ""
            },
            "choices": {
                "white": "Vit",
                "black": "Svart"
            },
            "other_choice": 0,
            "save_other_choice": 0,
            "default_value": "",
            "layout": "horizontal"
        },
        {
            "key": "field_542e8466f2414",
            "label": "L\u00e4gg till en knapp",
            "name": "button_on",
            "type": "radio",
            "instructions": "",
            "required": 0,
            "conditional_logic": [
                [
                    {
                        "field": "field_54294528c77bb",
                        "operator": "==",
                        "value": "yes"
                    }
                ]
            ],
            "wrapper": {
                "width": "",
                "class": "",
                "id": ""
            },
            "choices": {
                "no": "Nej",
                "yes": "Ja"
            },
            "other_choice": 0,
            "save_other_choice": 0,
            "default_value": "",
            "layout": "horizontal"
        },
        {
            "key": "field_53bb9e9f0d624",
            "label": "Text",
            "name": "button_text",
            "type": "text",
            "instructions": "",
            "required": 0,
            "conditional_logic": [
                [
                    {
                        "field": "field_542e8466f2414",
                        "operator": "==",
                        "value": "yes"
                    }
                ]
            ],
            "wrapper": {
                "width": "",
                "class": "",
                "id": ""
            },
            "default_value": "",
            "placeholder": "",
            "prepend": "",
            "append": "",
            "maxlength": "",
            "readonly": 0,
            "disabled": 0
        },
        {
            "key": "field_53bb9eb20d625",
            "label": "L\u00e4nk",
            "name": "button_link",
            "type": "page_link",
            "instructions": "",
            "required": 0,
            "conditional_logic": [
                [
                    {
                        "field": "field_542e8466f2414",
                        "operator": "==",
                        "value": "yes"
                    }
                ]
            ],
            "wrapper": {
                "width": "",
                "class": "",
                "id": ""
            },
            "post_type": [],
            "taxonomy": [],
            "allow_null": 0,
            "multiple": 0
        }
    ],
    "location": [
        [
            {
                "param": "post_type",
                "operator": "==",
                "value": "slideshow"
            }
        ]
    ],
    "menu_order": 1,
    "position": "normal",
    "style": "default",
    "label_placement": "top",
    "instruction_placement": "label",
    "hide_on_screen": [
        "the_content"
    ],
    "active": 1,
    "description": "",
    "modified": 1455716486
}